{
    "cpu_cap": 100,
    "image_uuid": "3bd7def1-bee1-11ef-809b-000c298e56b0",
    "hostname": "test-dhcp2",
    "max_physical_memory": 512,
    "quota": 100,
    "alias": "test-dhcp2",
    "nics": [
        {
            "interface": "net0",
            "nic_tag": "admin",
            "ip": "dhcp",
            "primary": true
        }
    ]
}
