{
    "cpu_cap": 100,
    "image_uuid": "618752d4-bd79-11ef-809b-000c298e56b0",
    "hostname": "ark",
    "max_physical_memory": 1024,
    "quota": 100,
    "brand": "lx-jail",
    "alias": "test",
    "nics": [
        {
            "interface": "net0",
            "nic_tag": "admin",
            "gateway": "192.168.3.1",
            "netmask": "255.255.255.0",
            "ip": "192.168.3.237",
            "primary": true
        }
    ]
}
